\relax 
\catcode `"\active 
\providecommand \oddpage@label [2]{}
\select@language{brazilian}
\@writefile{toc}{\select@language{brazilian}}
\@writefile{lof}{\select@language{brazilian}}
\@writefile{lot}{\select@language{brazilian}}
\@writefile{toc}{\contentsline {section}{\numberline {1}Introdu\IeC {\c c}\IeC {\~a}o}{4}}
\@writefile{toc}{\contentsline {section}{\numberline {2}Projeto}{5}}
\@writefile{lof}{\contentsline {figure}{\numberline {1}{\ignorespaces Esquem\IeC {\'a}tico do circuito $\mathbf  {\neg (ab+c)}$ (transistores PMOS indicados com uma circunfer\IeC {\^e}ncia preta no \emph  {gate})}}{5}}
\newlabel{fig:schematic_abouc}{{1}{5}}
\@writefile{lof}{\contentsline {figure}{\numberline {2}{\ignorespaces \emph  {Layout} gen\IeC {\'e}rico de um transistor MOS (medidas em $\ensuremath  {\SI@fstyle  {\upmu }}m$)}}{7}}
\newlabel{fig:mos_layout}{{2}{7}}
\@writefile{lof}{\contentsline {figure}{\numberline {3}{\ignorespaces Sinais do sistema, para capacit\IeC {\^a}ncia de carga de $50fF$, com rela\IeC {\c c}\IeC {\~a}o ao tempo no pior caso de descida a partir da extra\IeC {\c c}\IeC {\~a}o do esquem\IeC {\'a}tico ($A = B$, portanto omitiu-se o valor de $B$) - tens\IeC {\~a}o ($V$) x tempo ($ns$)}}{8}}
\newlabel{fig:q8_delay_fall_signals}{{3}{8}}
\@writefile{lof}{\contentsline {figure}{\numberline {4}{\ignorespaces Sinais do sistema, para capacit\IeC {\^a}ncia de carga de $50fF$, com rela\IeC {\c c}\IeC {\~a}o ao tempo no pior caso de subida a partir da extra\IeC {\c c}\IeC {\~a}o do esquem\IeC {\'a}tico ($A = C$, portanto omitiu-se o sinal $C$) - tens\IeC {\~a}o ($V$) x tempo ($ns$)}}{9}}
\newlabel{fig:q8_delay_rise_signals}{{4}{9}}
\@writefile{lof}{\contentsline {figure}{\numberline {5}{\ignorespaces Atrasos de descida (\emph  {DELAY\_FALL}) e subida (\emph  {DELAY\_RISE}) com rela\IeC {\c c}\IeC {\~a}o \IeC {\`a} capacit\IeC {\^a}ncia de carga aplicada ao sistema a partir da extra\IeC {\c c}\IeC {\~a}o do esquem\IeC {\'a}tico - tempo ($ps$) x capacit\IeC {\^a}ncia ($fF$)}}{10}}
\newlabel{fig:q8_delays}{{5}{10}}
\@writefile{lof}{\contentsline {figure}{\numberline {6}{\ignorespaces \emph  {Layout} desenvolvido para a fun\IeC {\c c}\IeC {\~a}o l\IeC {\'o}gica $\neg (ab+c)$}}{11}}
\newlabel{fig:layout_q16}{{6}{11}}
\@writefile{lof}{\contentsline {figure}{\numberline {7}{\ignorespaces Sinais do sistema, para capacit\IeC {\^a}ncia de carga de $50fF$, com rela\IeC {\c c}\IeC {\~a}o ao tempo no pior caso de descida a partir da extra\IeC {\c c}\IeC {\~a}o do \emph  {layout} ($A = B$, portanto omitiu-se o valor de $B$) - tens\IeC {\~a}o ($V$) x tempo ($ns$)}}{12}}
\newlabel{fig:delay_fall_signals_q16}{{7}{12}}
\@writefile{lof}{\contentsline {figure}{\numberline {8}{\ignorespaces Sinais do sistema, para capacit\IeC {\^a}ncia de carga de $50fF$, com rela\IeC {\c c}\IeC {\~a}o ao tempo no pior caso de subida a partir da extra\IeC {\c c}\IeC {\~a}o do \emph  {layout} ($A = C$, portanto omitiu-se o sinal $C$) - tens\IeC {\~a}o ($V$) x tempo ($ns$)}}{13}}
\newlabel{fig:delay_rise_signals_q16}{{8}{13}}
\@writefile{lof}{\contentsline {figure}{\numberline {9}{\ignorespaces Atrasos de descida (\emph  {DELAY\_FALL}) e subida (\emph  {DELAY\_RISE}) com rela\IeC {\c c}\IeC {\~a}o \IeC {\`a} capacit\IeC {\^a}ncia de carga aplicada ao sistema a partir da extra\IeC {\c c}\IeC {\~a}o do \emph  {layout} - tempo ($ps$) x capacit\IeC {\^a}ncia ($fF$)}}{14}}
\newlabel{fig:delays_q16}{{9}{14}}
\@writefile{lof}{\contentsline {figure}{\numberline {10}{\ignorespaces \emph  {Layout} desenvolvido para o inversor CMOS}}{15}}
\newlabel{fig:layout_q19}{{10}{15}}
\@writefile{lof}{\contentsline {figure}{\numberline {11}{\ignorespaces Sinais do sistema $(ab+c)$ com rela\IeC {\c c}\IeC {\~a}o ao tempo, com capacit\IeC {\^a}ncia de saida de $50Ff$, para o pior caso do tempo de subida a partir da extra\IeC {\c c}\IeC {\~a}o do esquem\IeC {\'a}tico ($A_N = B_N$, portanto omitiu-se o valor de $B_N$) - tens\IeC {\~a}o ($V$) x tempo ($ns$)}}{17}}
\newlabel{fig:delay_fall_signals_q22}{{11}{17}}
\@writefile{lof}{\contentsline {figure}{\numberline {12}{\ignorespaces Sinais do sistema $(ab+c)$ com rela\IeC {\c c}\IeC {\~a}o ao tempo, com capacit\IeC {\^a}ncia de saida de $50Ff$, para o pior caso do tempo de descida a partir da extra\IeC {\c c}\IeC {\~a}o do esquem\IeC {\'a}tico ($A_N = C_N$, portanto omitiu-se o sinal $C_N$) - tens\IeC {\~a}o ($V$) x tempo ($ns$)}}{18}}
\newlabel{fig:delay_rise_signals_q22}{{12}{18}}
\@writefile{lof}{\contentsline {figure}{\numberline {13}{\ignorespaces Atrasos de descida (\emph  {DELAY\_FALL}) e subida (\emph  {DELAY\_RISE}) com rela\IeC {\c c}\IeC {\~a}o \IeC {\`a} capacit\IeC {\^a}ncia de carga aplicada ao sistema a partir da extra\IeC {\c c}\IeC {\~a}o do esquem\IeC {\'a}tico do sistema $(ab+c)$ - tempo ($ps$) x capacit\IeC {\^a}ncia ($fF$)}}{18}}
\newlabel{fig:delays_q22}{{13}{18}}
\@writefile{lof}{\contentsline {figure}{\numberline {14}{\ignorespaces \emph  {Layout} desenvolvido para a porta l\IeC {\'o}gica $(ab+c)$}}{19}}
\newlabel{fig:layout_q24}{{14}{19}}
\@writefile{lof}{\contentsline {figure}{\numberline {15}{\ignorespaces Sinais do sistema $(ab+c)$ com rela\IeC {\c c}\IeC {\~a}o ao tempo, com capacit\IeC {\^a}ncia de saida de $50Ff$, para o pior caso do tempo de subida a partir da extra\IeC {\c c}\IeC {\~a}o do \emph  {layout} ($A_N = B_N$, portanto omitiu-se o valor de $B_N$) - tens\IeC {\~a}o ($V$) x tempo ($ns$)}}{20}}
\newlabel{fig:delay_fall_signals_q25}{{15}{20}}
\@writefile{lof}{\contentsline {figure}{\numberline {16}{\ignorespaces Sinais do sistema $(ab+c)$ com rela\IeC {\c c}\IeC {\~a}o ao tempo, com capacit\IeC {\^a}ncia de saida de $50Ff$, para o pior caso do tempo de descida a partir da extra\IeC {\c c}\IeC {\~a}o do \emph  {layout} ($A_N = C_N$, portanto omitiu-se o sinal $C_N$) - tens\IeC {\~a}o ($V$) x tempo ($ns$)}}{22}}
\newlabel{fig:delay_rise_signals_q25}{{16}{22}}
\@writefile{lof}{\contentsline {figure}{\numberline {17}{\ignorespaces Atrasos de descida (\emph  {DELAY\_FALL}) e subida (\emph  {DELAY\_RISE}) com rela\IeC {\c c}\IeC {\~a}o \IeC {\`a} capacit\IeC {\^a}ncia de carga aplicada ao sistema a partir da extra\IeC {\c c}\IeC {\~a}o do \emph  {layout} do sistema $(ab+c)$ - tempo ($ps$) x capacit\IeC {\^a}ncia ($fF$)}}{22}}
\newlabel{fig:delays_q25}{{17}{22}}
\@writefile{lof}{\contentsline {figure}{\numberline {18}{\ignorespaces Atrasos de descida (\emph  {DELAYF}) e subida (\emph  {DELAYR}) com rela\IeC {\c c}\IeC {\~a}o \IeC {\`a} capacit\IeC {\^a}ncia de carga aplicada ao sistema $(ab+c)$ - tempo ($ps$) x capacit\IeC {\^a}ncia ($fF$)}}{24}}
\newlabel{fig:q27_delays}{{18}{24}}
\@writefile{lof}{\contentsline {figure}{\numberline {19}{\ignorespaces Sinais do sistema com rela\IeC {\c c}\IeC {\~a}o ao tempo para capacit\IeC {\^a}ncia de carga de $30fF$ aplicada \IeC {\`a} saida do circuito - tens\IeC {\~a}o ($V$) x tempo ($ns$)}}{24}}
\newlabel{fig:q27_delay_signals}{{19}{24}}
\@writefile{lof}{\contentsline {figure}{\numberline {20}{\ignorespaces Histograma que indica o n\IeC {\'u}mero de sa\IeC {\'\i }das para os valores de atraso (DELAYF e DELAYR) - n\IeC {\'u}mero de sa\IeC {\'\i }das x atraso ($ps$)}}{26}}
\newlabel{fig:q28_delay_histogram}{{20}{26}}
\@writefile{lof}{\contentsline {figure}{\numberline {21}{\ignorespaces Sinais $C_N$ e $OUT_N$ do sistema com rela\IeC {\c c}\IeC {\~a}o ao tempo - tens\IeC {\~a}o ($V$) x tempo ($ns$)}}{26}}
\newlabel{fig:q28_delay_signals}{{21}{26}}
