\select@language {brazilian}
\contentsline {figure}{\numberline {1}{\ignorespaces Esquem\IeC {\'a}tico do circuito $\mathbf {\neg (ab+c)}$ (transistores PMOS indicados com uma circunfer\IeC {\^e}ncia preta no \emph {gate})}}{5}
\contentsline {figure}{\numberline {2}{\ignorespaces \emph {Layout} gen\IeC {\'e}rico de um transistor MOS (medidas em $\ensuremath {\SI@fstyle {\upmu }}m$)}}{7}
\contentsline {figure}{\numberline {3}{\ignorespaces Sinais do sistema, para capacit\IeC {\^a}ncia de carga de $50fF$, com rela\IeC {\c c}\IeC {\~a}o ao tempo no pior caso de descida a partir da extra\IeC {\c c}\IeC {\~a}o do esquem\IeC {\'a}tico ($A = B$, portanto omitiu-se o valor de $B$) - tens\IeC {\~a}o ($V$) x tempo ($ns$)}}{8}
\contentsline {figure}{\numberline {4}{\ignorespaces Sinais do sistema, para capacit\IeC {\^a}ncia de carga de $50fF$, com rela\IeC {\c c}\IeC {\~a}o ao tempo no pior caso de subida a partir da extra\IeC {\c c}\IeC {\~a}o do esquem\IeC {\'a}tico ($A = C$, portanto omitiu-se o sinal $C$) - tens\IeC {\~a}o ($V$) x tempo ($ns$)}}{9}
\contentsline {figure}{\numberline {5}{\ignorespaces Atrasos de descida (\emph {DELAY\_FALL}) e subida (\emph {DELAY\_RISE}) com rela\IeC {\c c}\IeC {\~a}o \IeC {\`a} capacit\IeC {\^a}ncia de carga aplicada ao sistema a partir da extra\IeC {\c c}\IeC {\~a}o do esquem\IeC {\'a}tico - tempo ($ps$) x capacit\IeC {\^a}ncia ($fF$)}}{10}
\contentsline {figure}{\numberline {6}{\ignorespaces \emph {Layout} desenvolvido para a fun\IeC {\c c}\IeC {\~a}o l\IeC {\'o}gica $\neg (ab+c)$}}{11}
\contentsline {figure}{\numberline {7}{\ignorespaces Sinais do sistema, para capacit\IeC {\^a}ncia de carga de $50fF$, com rela\IeC {\c c}\IeC {\~a}o ao tempo no pior caso de descida a partir da extra\IeC {\c c}\IeC {\~a}o do \emph {layout} ($A = B$, portanto omitiu-se o valor de $B$) - tens\IeC {\~a}o ($V$) x tempo ($ns$)}}{12}
\contentsline {figure}{\numberline {8}{\ignorespaces Sinais do sistema, para capacit\IeC {\^a}ncia de carga de $50fF$, com rela\IeC {\c c}\IeC {\~a}o ao tempo no pior caso de subida a partir da extra\IeC {\c c}\IeC {\~a}o do \emph {layout} ($A = C$, portanto omitiu-se o sinal $C$) - tens\IeC {\~a}o ($V$) x tempo ($ns$)}}{13}
\contentsline {figure}{\numberline {9}{\ignorespaces Atrasos de descida (\emph {DELAY\_FALL}) e subida (\emph {DELAY\_RISE}) com rela\IeC {\c c}\IeC {\~a}o \IeC {\`a} capacit\IeC {\^a}ncia de carga aplicada ao sistema a partir da extra\IeC {\c c}\IeC {\~a}o do \emph {layout} - tempo ($ps$) x capacit\IeC {\^a}ncia ($fF$)}}{14}
\contentsline {figure}{\numberline {10}{\ignorespaces \emph {Layout} desenvolvido para o inversor CMOS}}{15}
\contentsline {figure}{\numberline {11}{\ignorespaces Sinais do sistema $(ab+c)$ com rela\IeC {\c c}\IeC {\~a}o ao tempo, com capacit\IeC {\^a}ncia de saida de $50Ff$, para o pior caso do tempo de subida a partir da extra\IeC {\c c}\IeC {\~a}o do esquem\IeC {\'a}tico ($A_N = B_N$, portanto omitiu-se o valor de $B_N$) - tens\IeC {\~a}o ($V$) x tempo ($ns$)}}{17}
\contentsline {figure}{\numberline {12}{\ignorespaces Sinais do sistema $(ab+c)$ com rela\IeC {\c c}\IeC {\~a}o ao tempo, com capacit\IeC {\^a}ncia de saida de $50Ff$, para o pior caso do tempo de descida a partir da extra\IeC {\c c}\IeC {\~a}o do esquem\IeC {\'a}tico ($A_N = C_N$, portanto omitiu-se o sinal $C_N$) - tens\IeC {\~a}o ($V$) x tempo ($ns$)}}{18}
\contentsline {figure}{\numberline {13}{\ignorespaces Atrasos de descida (\emph {DELAY\_FALL}) e subida (\emph {DELAY\_RISE}) com rela\IeC {\c c}\IeC {\~a}o \IeC {\`a} capacit\IeC {\^a}ncia de carga aplicada ao sistema a partir da extra\IeC {\c c}\IeC {\~a}o do esquem\IeC {\'a}tico do sistema $(ab+c)$ - tempo ($ps$) x capacit\IeC {\^a}ncia ($fF$)}}{18}
\contentsline {figure}{\numberline {14}{\ignorespaces \emph {Layout} desenvolvido para a porta l\IeC {\'o}gica $(ab+c)$}}{19}
\contentsline {figure}{\numberline {15}{\ignorespaces Sinais do sistema $(ab+c)$ com rela\IeC {\c c}\IeC {\~a}o ao tempo, com capacit\IeC {\^a}ncia de saida de $50Ff$, para o pior caso do tempo de subida a partir da extra\IeC {\c c}\IeC {\~a}o do \emph {layout} ($A_N = B_N$, portanto omitiu-se o valor de $B_N$) - tens\IeC {\~a}o ($V$) x tempo ($ns$)}}{20}
\contentsline {figure}{\numberline {16}{\ignorespaces Sinais do sistema $(ab+c)$ com rela\IeC {\c c}\IeC {\~a}o ao tempo, com capacit\IeC {\^a}ncia de saida de $50Ff$, para o pior caso do tempo de descida a partir da extra\IeC {\c c}\IeC {\~a}o do \emph {layout} ($A_N = C_N$, portanto omitiu-se o sinal $C_N$) - tens\IeC {\~a}o ($V$) x tempo ($ns$)}}{22}
\contentsline {figure}{\numberline {17}{\ignorespaces Atrasos de descida (\emph {DELAY\_FALL}) e subida (\emph {DELAY\_RISE}) com rela\IeC {\c c}\IeC {\~a}o \IeC {\`a} capacit\IeC {\^a}ncia de carga aplicada ao sistema a partir da extra\IeC {\c c}\IeC {\~a}o do \emph {layout} do sistema $(ab+c)$ - tempo ($ps$) x capacit\IeC {\^a}ncia ($fF$)}}{22}
\contentsline {figure}{\numberline {18}{\ignorespaces Atrasos de descida (\emph {DELAYF}) e subida (\emph {DELAYR}) com rela\IeC {\c c}\IeC {\~a}o \IeC {\`a} capacit\IeC {\^a}ncia de carga aplicada ao sistema $(ab+c)$ - tempo ($ps$) x capacit\IeC {\^a}ncia ($fF$)}}{24}
\contentsline {figure}{\numberline {19}{\ignorespaces Sinais do sistema com rela\IeC {\c c}\IeC {\~a}o ao tempo para capacit\IeC {\^a}ncia de carga de $30fF$ aplicada \IeC {\`a} saida do circuito - tens\IeC {\~a}o ($V$) x tempo ($ns$)}}{24}
\contentsline {figure}{\numberline {20}{\ignorespaces Histograma que indica o n\IeC {\'u}mero de sa\IeC {\'\i }das para os valores de atraso (DELAYF e DELAYR) - n\IeC {\'u}mero de sa\IeC {\'\i }das x atraso ($ps$)}}{26}
\contentsline {figure}{\numberline {21}{\ignorespaces Sinais $C_N$ e $OUT_N$ do sistema com rela\IeC {\c c}\IeC {\~a}o ao tempo - tens\IeC {\~a}o ($V$) x tempo ($ns$)}}{26}
