\relax 
\catcode `"\active 
\providecommand \oddpage@label [2]{}
\select@language{brazilian}
\@writefile{toc}{\select@language{brazilian}}
\@writefile{lof}{\select@language{brazilian}}
\@writefile{lot}{\select@language{brazilian}}
\@writefile{toc}{\contentsline {section}{\numberline {1}Introdu\IeC {\c c}\IeC {\~a}o}{4}}
\@writefile{toc}{\contentsline {section}{\numberline {2}Projeto}{5}}
\@writefile{lof}{\contentsline {figure}{\numberline {1}{\ignorespaces Esquem\IeC {\'a}tico para o circuito do \emph  {Flip-Flop} \textbf  {DF1} da tecnologia \emph  {austriamicrosystems}}}{5}}
\newlabel{fig:esquematico_df1}{{1}{5}}
\@writefile{lof}{\contentsline {figure}{\numberline {2}{\ignorespaces Esquem\IeC {\'a}tico do circuito com \textbf  {DF3} e \textbf  {NAND22}}}{6}}
\newlabel{fig:schema}{{2}{6}}
\@writefile{lof}{\contentsline {figure}{\numberline {3}{\ignorespaces Rela\IeC {\c c}\IeC {\~a}o de divis\IeC {\~a}o de corrente entre entrada e sa\IeC {\'\i }da de acordo com o per\IeC {\'\i }odo simulado - rela\IeC {\c c}\IeC {\~a}o (adimensional) x tempo ($ns$)}}{10}}
\newlabel{fig:ratio_schematic}{{3}{10}}
\@writefile{lof}{\contentsline {figure}{\numberline {4}{\ignorespaces \emph  {layout} desenvolvido para o circuito divisor de \emph  {clock} 2:1}}{11}}
\newlabel{fig:layout_divisor}{{4}{11}}
\@writefile{lof}{\contentsline {figure}{\numberline {5}{\ignorespaces Rela\IeC {\c c}\IeC {\~a}o entre o \emph  {clock} de entrada e o sinal de sa\IeC {\'\i }da com rela\IeC {\c c}\IeC {\~a}o ao per\IeC {\'\i }odo do \emph  {clock} do sistema - rela\IeC {\c c}\IeC {\~a}o (adimensional) x tempo ($ns$)}}{12}}
\newlabel{fig:layout_divisor_ratio}{{5}{12}}
\@writefile{lof}{\contentsline {figure}{\numberline {6}{\ignorespaces \emph  {Clock} de entrada ($V(CLK)$) e o sinal de sa\IeC {\'\i }da ($V(Q)$) no per\IeC {\'\i }odo resultante simulado - tens\IeC {\~a}o ($V$) x tempo ($ns$)}}{12}}
\newlabel{fig:layout_divisor_ratio2}{{6}{12}}
\@writefile{lof}{\contentsline {figure}{\numberline {7}{\ignorespaces Rela\IeC {\c c}\IeC {\~a}o entre o \emph  {clock} de entrada e o sinal de sa\IeC {\'\i }da com rela\IeC {\c c}\IeC {\~a}o ao per\IeC {\'\i }odo do \emph  {clock} do sistema - rela\IeC {\c c}\IeC {\~a}o (adimensional) x tempo ($ns$)}}{14}}
\newlabel{fig:layout_divisor_ratio21}{{7}{14}}
\@writefile{lof}{\contentsline {figure}{\numberline {8}{\ignorespaces \emph  {Clock} de entrada ($V(CLK)$) e o sinal de sa\IeC {\'\i }da ($V(Q)$) no per\IeC {\'\i }odo resultante simulado - tens\IeC {\~a}o ($V$) x tempo ($ns$)}}{14}}
\newlabel{fig:layout_divisor_ratio22}{{8}{14}}
\@writefile{lot}{\contentsline {table}{\numberline {1}{\ignorespaces Per\IeC {\'\i }odos de \emph  {clock} obtidos para as simula\IeC {\c c}\IeC {\~o}es realizadas do circuito divisor de \emph  {clock} 2:1}}{15}}
\newlabel{tab:clocks_divisor}{{1}{15}}
\@writefile{lof}{\contentsline {figure}{\numberline {9}{\ignorespaces Rela\IeC {\c c}\IeC {\~a}o de divis\IeC {\~a}o de corrente entre entrada e sa\IeC {\'\i }da de acordo com o per\IeC {\'\i }odo simulado - rela\IeC {\c c}\IeC {\~a}o (adimensional) x tempo ($ns$)}}{20}}
\newlabel{fig:ratio_schematic_5}{{9}{20}}
\@writefile{lof}{\contentsline {figure}{\numberline {10}{\ignorespaces Pot\IeC {\^e}ncia consumida pelo sistema de acordo com o per\IeC {\'\i }odo de \emph  {clock} simulado - pot\IeC {\^e}ncia ($mW/Ghz$) x per\IeC {\'\i }odo ($ns$)}}{20}}
\newlabel{fig:power_schematic_5}{{10}{20}}
\@writefile{lof}{\contentsline {figure}{\numberline {11}{\ignorespaces \emph  {Layout} desenvolvido para o circuito divisor de \emph  {clock} 4/5}}{21}}
\newlabel{fig:layout_divisor_5}{{11}{21}}
\@writefile{lof}{\contentsline {figure}{\numberline {12}{\ignorespaces Rela\IeC {\c c}\IeC {\~a}o de divis\IeC {\~a}o de corrente entre entrada e sa\IeC {\'\i }da de acordo com o per\IeC {\'\i }odo simulado - rela\IeC {\c c}\IeC {\~a}o (adimensional) x tempo ($ns$)}}{22}}
\newlabel{fig:ratio_schematic_521}{{12}{22}}
\@writefile{lof}{\contentsline {figure}{\numberline {13}{\ignorespaces Pot\IeC {\^e}ncia consumida pelo sistema de acordo com o per\IeC {\'\i }odo de \emph  {clock} simulado - pot\IeC {\^e}ncia ($mW/Ghz$) x per\IeC {\'\i }odo ($ns$)}}{23}}
\newlabel{fig:power_schematic_522}{{13}{23}}
\@writefile{lof}{\contentsline {figure}{\numberline {14}{\ignorespaces Rela\IeC {\c c}\IeC {\~a}o de divis\IeC {\~a}o de corrente entre entrada e sa\IeC {\'\i }da de acordo com o per\IeC {\'\i }odo simulado - rela\IeC {\c c}\IeC {\~a}o (adimensional) x tempo ($ns$)}}{24}}
\newlabel{fig:ratio_schematic_5211}{{14}{24}}
\@writefile{lof}{\contentsline {figure}{\numberline {15}{\ignorespaces Pot\IeC {\^e}ncia consumida pelo sistema de acordo com o per\IeC {\'\i }odo de \emph  {clock} simulado - pot\IeC {\^e}ncia ($mW/Ghz$) x per\IeC {\'\i }odo ($ns$)}}{25}}
\newlabel{fig:power_schematic_5222}{{15}{25}}
\@writefile{lot}{\contentsline {table}{\numberline {2}{\ignorespaces Per\IeC {\'\i }odos de \emph  {clock} e pot\IeC {\^e}ncia consumida obtidos para as simula\IeC {\c c}\IeC {\~o}es realizadas do circuito divisor de \emph  {clock} 4/5}}{25}}
\newlabel{tab:clocks_divisor2}{{2}{25}}
