\relax 
\catcode `"\active 
\providecommand \oddpage@label [2]{}
\select@language{brazilian}
\@writefile{toc}{\select@language{brazilian}}
\@writefile{lof}{\select@language{brazilian}}
\@writefile{lot}{\select@language{brazilian}}
\@writefile{toc}{\contentsline {section}{\numberline {1}Introdu\IeC {\c c}\IeC {\~a}o}{4}}
\@writefile{toc}{\contentsline {section}{\numberline {2}Projeto}{5}}
\@writefile{lof}{\contentsline {figure}{\numberline {1}{\ignorespaces a) Espelho de corrente convencional; b) espelho de corrente de Wilson}}{7}}
\newlabel{fig:current_mirrors}{{1}{7}}
\@writefile{lof}{\contentsline {figure}{\numberline {2}{\ignorespaces Circuito gerador de corrente de refer\IeC {\^e}ncia}}{10}}
\newlabel{fig:current_reference_mirror}{{2}{10}}
\@writefile{lot}{\contentsline {table}{\numberline {1}{\ignorespaces Crit\IeC {\'e}rios para defini\IeC {\c c}\IeC {\~a}o de regi\IeC {\~a}o de opera\IeC {\c c}\IeC {\~a}o de um transistor MOS}}{11}}
\newlabel{tab:LIM_tab}{{1}{11}}
\@writefile{lot}{\contentsline {table}{\numberline {2}{\ignorespaces Dados da fonte de corrente para a tecnologia $0,35\ensuremath  {\SI@fstyle  {\upmu }}m$}}{13}}
\newlabel{tab:data_tab}{{2}{13}}
\@writefile{lot}{\contentsline {table}{\numberline {3}{\ignorespaces Dimens\IeC {\~o}es $W$ e $L$ dos transistores MOS para o projeto da fonte de corrente}}{14}}
\newlabel{tab:dimensions_mos}{{3}{14}}
\@writefile{lof}{\contentsline {figure}{\numberline {3}{\ignorespaces Corrente de sa\IeC {\'\i }da da fonte projetada ($I_S$) com rela\IeC {\c c}\IeC {\~a}o \IeC {\`a} varia\IeC {\c c}\IeC {\~a}o da resist\IeC {\^e}ncia do circuito ($R$) - corrente ($\ensuremath  {\SI@fstyle  {\upmu }}A$) x resist\IeC {\^e}ncia ($k \ensuremath  {\SI@fstyle  {\ensuremath  {\Omega }}}$)}}{16}}
\newlabel{fig:q8_is_x_resistencia}{{3}{16}}
\@writefile{lof}{\contentsline {figure}{\numberline {4}{\ignorespaces Corrente de sa\IeC {\'\i }da da fonte projetada ($I_S$) com rela\IeC {\c c}\IeC {\~a}o \IeC {\`a} tens\IeC {\~a}o de alimenta\IeC {\c c}\IeC {\~a}o com resist\IeC {\^e}ncia ajustada - corrente ($\ensuremath  {\SI@fstyle  {\upmu }}A$) x tens\IeC {\~a}o ($V$)}}{17}}
\newlabel{fig:q8_is_x_vdd_reajustado}{{4}{17}}
\@writefile{lof}{\contentsline {figure}{\numberline {5}{\ignorespaces Faixa de opera\IeC {\c c}\IeC {\~a}o do circuito para 2\% de varia\IeC {\c c}\IeC {\~a}o da corrente projetada}}{17}}
\newlabel{fig:q9_2percent}{{5}{17}}
\@writefile{lof}{\contentsline {figure}{\numberline {6}{\ignorespaces Esquem\IeC {\'a}tico desenvolvido para a fonte de corrente projetada}}{19}}
\newlabel{fig:q11_esquematico}{{6}{19}}
\@writefile{lof}{\contentsline {figure}{\numberline {7}{\ignorespaces Corrente de sa\IeC {\'\i }da ($I_S$) com rela\IeC {\c c}\IeC {\~a}o \IeC {\`a} alimenta\IeC {\c c}\IeC {\~a}o do circuito ($V_{DD}$) - corrente ($\ensuremath  {\SI@fstyle  {\upmu }}A$) x tens\IeC {\~a}o ($V$)}}{19}}
\newlabel{fig:q11_is_x_vdd}{{7}{19}}
\@writefile{lof}{\contentsline {figure}{\numberline {8}{\ignorespaces Corrente resultante da fonte para inicializa\IeC {\c c}\IeC {\~a}o do \emph  {gate} do transistor de sa\IeC {\'\i }da em $V_{DD}$}}{20}}
\newlabel{fig:q12_ic}{{8}{20}}
\@writefile{lof}{\contentsline {figure}{\numberline {9}{\ignorespaces Resistor RPOLYH de alta resist\IeC {\^e}ncia}}{21}}
\newlabel{fig:rpolyh_resistor}{{9}{21}}
\@writefile{lof}{\contentsline {figure}{\numberline {10}{\ignorespaces \emph  {Layout} da fonte de corrente reprojetada com cascode e elementos PMOS com $L$ modificado}}{22}}
\newlabel{fig:q15_layout}{{10}{22}}
\@writefile{lof}{\contentsline {figure}{\numberline {11}{\ignorespaces Simula\IeC {\c c}\IeC {\~a}o da corrente de sa\IeC {\'\i }da da fonte de corrente para a tens\IeC {\~a}o de alimenta\IeC {\c c}\IeC {\~a}o $V_{DD} = 3V$ - corrente ($\ensuremath  {\SI@fstyle  {\upmu }}A$) x tens\IeC {\~a}o ($V$))}}{23}}
\newlabel{fig:q16_a}{{11}{23}}
\@writefile{lof}{\contentsline {figure}{\numberline {12}{\ignorespaces Resultado da simula\IeC {\c c}\IeC {\~a}o de Monte Carlos para a fonte de corrente extra\IeC {\'\i }da do \emph  {layout} - n\IeC {\'u}mero de resultados x corrente de sa\IeC {\'\i }da ($\ensuremath  {\SI@fstyle  {\upmu }}A$)}}{23}}
\newlabel{fig:q16_b}{{12}{23}}
\@writefile{lof}{\contentsline {figure}{\numberline {13}{\ignorespaces Varia\IeC {\c c}\IeC {\~a}o da corrente de sa\IeC {\'\i }da com rela\IeC {\c c}\IeC {\~a}o \IeC {\`a} tens\IeC {\~a}o de dreno do transistor correspondente - corrente ($\ensuremath  {\SI@fstyle  {\upmu }}A$) x tens\IeC {\~a}o de dreno ($V$)}}{24}}
\newlabel{fig:q16_c}{{13}{24}}
\@writefile{lof}{\contentsline {figure}{\numberline {14}{\ignorespaces Corrente de sa\IeC {\'\i }da da fonte de corrente com rela\IeC {\c c}\IeC {\~a}o \IeC {\`a} varia\IeC {\c c}\IeC {\~a}o da temperatura - corrente ($\ensuremath  {\SI@fstyle  {\upmu }}A$) x temperatura ($\tmspace  +\thinmuskip {.1667em}^{\circ }\mathrm  {C}$)}}{25}}
\newlabel{fig:is_temp}{{14}{25}}
\@writefile{lof}{\contentsline {figure}{\numberline {15}{\ignorespaces Corrente de sa\IeC {\'\i }da da fonte de corrente com rela\IeC {\c c}\IeC {\~a}o \IeC {\`a} varia\IeC {\c c}\IeC {\~a}o da temperatura com seus valores extremos - corrente ($\ensuremath  {\SI@fstyle  {\upmu }}A$) x temperatura ($\tmspace  +\thinmuskip {.1667em}^{\circ }\mathrm  {C}$)}}{26}}
\newlabel{fig:is_temp_extremo}{{15}{26}}
\@writefile{lof}{\contentsline {figure}{\numberline {16}{\ignorespaces Gr\IeC {\'a}ficos de magnitude (em $dB$) e fase (em graus) com rela\IeC {\c c}\IeC {\~a}o \IeC {\`a} frequ\IeC {\^e}ncia ($Hz$)}}{28}}
\newlabel{fig:is_db_freq}{{16}{28}}
\@writefile{lof}{\contentsline {figure}{\numberline {17}{\ignorespaces Frequ\IeC {\^e}ncia m\IeC {\'a}xima de um ru\IeC {\'\i }do de $0,1V$ na fonte de corrente}}{28}}
\newlabel{fig:freq_max_ruido}{{17}{28}}
\@writefile{lof}{\contentsline {figure}{\numberline {18}{\ignorespaces Simula\IeC {\c c}\IeC {\~a}o para a influ\IeC {\^e}ncia da temperatura no funcionamento do transistor BJT VERT10 - tens\IeC {\~a}o ($V$) x temperatura ($\tmspace  +\thinmuskip {.1667em}^{\circ }\mathrm  {C}$)}}{30}}
\newlabel{fig:vbe_x_temp}{{18}{30}}
\@writefile{lof}{\contentsline {figure}{\numberline {19}{\ignorespaces Esquem\IeC {\'a}tico desenvolvido para a fonte de tens\IeC {\~a}o utilizando uma fonte de corrente e um BJT VERT10}}{31}}
\newlabel{fig:schematic}{{19}{31}}
\@writefile{lof}{\contentsline {figure}{\numberline {20}{\ignorespaces Gr\IeC {\'a}fico referente \IeC {\`a} varia\IeC {\c c}\IeC {\~a}o do valor m\IeC {\'a}ximo e m\IeC {\'\i }nimo para a tens\IeC {\~a}o de refer\IeC {\^e}ncia com rela\IeC {\c c}\IeC {\~a}o \IeC {\`a} resist\IeC {\^e}ncia - tens\IeC {\~a}o ($V$) x resist\IeC {\^e}ncia ($k\ensuremath  {\SI@fstyle  {\ensuremath  {\Omega }}}$)}}{31}}
\newlabel{fig:resistor_simulated_temp_coefficient}{{20}{31}}
\@writefile{lot}{\contentsline {table}{\numberline {4}{\ignorespaces Dimens\IeC {\~o}es dos transitores utilizados na constru\IeC {\c c}\IeC {\~a}o da fonte de tens\IeC {\~a}o (avaliando os elementos presentes na fonte de corrente utilizada)}}{32}}
\newlabel{tab:size_transistors}{{4}{32}}
\@writefile{lof}{\contentsline {figure}{\numberline {21}{\ignorespaces Gr\IeC {\'a}fico referente \IeC {\`a} varia\IeC {\c c}\IeC {\~a}o do valor da tens\IeC {\~a}o de refer\IeC {\^e}ncia com rela\IeC {\c c}\IeC {\~a}o \IeC {\`a} temperatura do circuito - tens\IeC {\~a}o ($mV$) x temperatura ($\tmspace  +\thinmuskip {.1667em}^{\circ }{\rm  C}$)}}{32}}
\newlabel{fig:vref_temp}{{21}{32}}
\@writefile{lof}{\contentsline {figure}{\numberline {22}{\ignorespaces \emph  {Layout} desenvolvido e ajustado para a fonte de tens\IeC {\~a}o projetada}}{33}}
\newlabel{fig:layout_res}{{22}{33}}
\@writefile{lof}{\contentsline {figure}{\numberline {23}{\ignorespaces Tens\IeC {\~a}o pico a pico com rela\IeC {\c c}\IeC {\~a}o ao comprimento da resist\IeC {\^e}ncia da fonte de tens\IeC {\~a}o - tens\IeC {\~a}o ($mV$) x comprimento ($\ensuremath  {\SI@fstyle  {\upmu }}m$)}}{34}}
\newlabel{fig:coef_temp_res2}{{23}{34}}
\@writefile{lof}{\contentsline {figure}{\numberline {24}{\ignorespaces Tens\IeC {\~a}o de refer\IeC {\^e}ncia com rela\IeC {\c c}\IeC {\~a}o \IeC {\`a} temperatura para valores de $V_{DD}$ variando entre $2V$, $2,5V$ e $3V$ - tens\IeC {\~a}o ($V$) x temperatura ($\tmspace  +\thinmuskip {.1667em}^{\circ }\mathrm  {C}$) [$V(VREF)_1 = 2V$, $V(VREF)_2=2,5V$ e $V(VREF)_3=3V$]}}{34}}
\newlabel{fig:vref_vdd}{{24}{34}}
\@writefile{lof}{\contentsline {figure}{\numberline {25}{\ignorespaces \emph  {Layout} para a fonte de tens\IeC {\~a}o com \emph  {pads} de conecx\IeC {\~a}o adicionados ao componente}}{35}}
\newlabel{fig:layout_pads}{{25}{35}}
