\select@language {brazilian}
\contentsline {table}{\numberline {1}{\ignorespaces Crit\IeC {\'e}rios para defini\IeC {\c c}\IeC {\~a}o de regi\IeC {\~a}o de opera\IeC {\c c}\IeC {\~a}o de um transistor MOS}}{11}
\contentsline {table}{\numberline {2}{\ignorespaces Dados da fonte de corrente para a tecnologia $0,35\ensuremath {\SI@fstyle {\upmu }}m$}}{13}
\contentsline {table}{\numberline {3}{\ignorespaces Dimens\IeC {\~o}es $W$ e $L$ dos transistores MOS para o projeto da fonte de corrente}}{14}
\contentsline {table}{\numberline {4}{\ignorespaces Dimens\IeC {\~o}es dos transitores utilizados na constru\IeC {\c c}\IeC {\~a}o da fonte de tens\IeC {\~a}o (avaliando os elementos presentes na fonte de corrente utilizada)}}{32}
