# Fdb version 3
["pdflatex"] 1442581174 "Relatorio2.tex" "Relatorio2.pdf" "Relatorio2" 1442581178
  "/usr/local/texlive/2015/texmf-dist/tex/context/base/supp-pdf.mkii" 1337017135 71627 94eb9990bed73c364d7f53f960cc8c5b ""
  "/usr/local/texlive/2015/texmf-dist/tex/generic/babel-portuges/portuges.ldf" 1367878976 6605 2bd2937f1ce929b4a1367cc2d320364e ""
  "/usr/local/texlive/2015/texmf-dist/tex/generic/babel/babel.def" 1411763270 49725 b40154b767b0073ee42b35911042b793 ""
  "/usr/local/texlive/2015/texmf-dist/tex/generic/babel/babel.sty" 1411763270 13212 dc56c11a26f3ea97bcf005eeda274583 ""
  "/usr/local/texlive/2015/texmf-dist/tex/generic/circuitikz/circuitikz.code.tex" 1431726452 33717 720cf864a0188784c202a474f3b3417d ""
  "/usr/local/texlive/2015/texmf-dist/tex/generic/circuitikz/circuitikz1.code.tex" 1431726452 33000 0ebafb1ae6c28709535a1e05cc1a4287 ""
  "/usr/local/texlive/2015/texmf-dist/tex/generic/circuitikz/pgfcircbipoles.tex" 1431726452 113574 cf2537cb54c6328ed512c0911cd7af92 ""
  "/usr/local/texlive/2015/texmf-dist/tex/generic/circuitikz/pgfcirccurrent.tex" 1431726452 7061 fec163c4ff33621e52de554e90479890 ""
  "/usr/local/texlive/2015/texmf-dist/tex/generic/circuitikz/pgfcircinputarrows.tex" 1431726452 385 c21480f81e1a69e92eae92740eedf044 ""
  "/usr/local/texlive/2015/texmf-dist/tex/generic/circuitikz/pgfcirclabel.tex" 1431726452 3734 977483589ef563409b163ac80b67d32e ""
  "/usr/local/texlive/2015/texmf-dist/tex/generic/circuitikz/pgfcircmath.tex" 1431726452 1084 cd399d6f30a65818b99d9c95c0ac302a ""
  "/usr/local/texlive/2015/texmf-dist/tex/generic/circuitikz/pgfcircmonopoles.tex" 1431726452 20228 04f8a7eefcdc49a88f03ab91b21ab1f1 ""
  "/usr/local/texlive/2015/texmf-dist/tex/generic/circuitikz/pgfcircnpoles.tex" 1431726452 16338 35d16d5f4080eb16c0239d8c241a775d ""
  "/usr/local/texlive/2015/texmf-dist/tex/generic/circuitikz/pgfcircquadpoles.tex" 1431726452 16342 f11c85ff5bcd868a9d389165a8f2ca3e ""
  "/usr/local/texlive/2015/texmf-dist/tex/generic/circuitikz/pgfcircshapes.tex" 1431726452 3572 53adca0d6c9644f5c75afe0e6df6c4c6 ""
  "/usr/local/texlive/2015/texmf-dist/tex/generic/circuitikz/pgfcirctripoles.tex" 1431726452 124964 d188d69c85cacc8eb8ae6a6dfe3bd03c ""
  "/usr/local/texlive/2015/texmf-dist/tex/generic/circuitikz/pgfcircutils.tex" 1431726452 1548 ffe6c3002f4f2dde31b1db984f5b5ce2 ""
  "/usr/local/texlive/2015/texmf-dist/tex/generic/circuitikz/pgfcircvoltage.tex" 1431726452 10497 db90a906747b3fc2591638d605a25698 ""
  "/usr/local/texlive/2015/texmf-dist/tex/generic/ifxetex/ifxetex.sty" 1284331290 1458 43ab4710dc82f3edeabecd0d099626b2 ""
  "/usr/local/texlive/2015/texmf-dist/tex/generic/oberdiek/etexcmds.sty" 1335995445 7612 c47308d923ec19888707b0f1792b326a ""
  "/usr/local/texlive/2015/texmf-dist/tex/generic/oberdiek/ifluatex.sty" 1303254447 7324 11d14f318d865f420e692d4e6c9c18c3 ""
  "/usr/local/texlive/2015/texmf-dist/tex/generic/oberdiek/ifpdf.sty" 1303254447 7140 ece2cc23d9f20e1f53975ac167f42d3e ""
  "/usr/local/texlive/2015/texmf-dist/tex/generic/oberdiek/ifvtex.sty" 1335995445 6797 68c89f65e01894df882dd523d3fc0a8f ""
  "/usr/local/texlive/2015/texmf-dist/tex/generic/oberdiek/infwarerr.sty" 1335995445 8253 3bdedc8409aa5d290a2339be6f09af03 ""
  "/usr/local/texlive/2015/texmf-dist/tex/generic/oberdiek/kvdefinekeys.sty" 1335995445 5152 387d9200f396b498d5fd679ae44ed898 ""
  "/usr/local/texlive/2015/texmf-dist/tex/generic/oberdiek/kvsetkeys.sty" 1335995445 14040 8de9f47fabc4ca3bd69b6d795e32751c ""
  "/usr/local/texlive/2015/texmf-dist/tex/generic/oberdiek/ltxcmds.sty" 1335995445 18425 775b341047ce304520cc7c11ca41392e ""
  "/usr/local/texlive/2015/texmf-dist/tex/generic/oberdiek/pdftexcmds.sty" 1335995445 19987 01cb2f3c1d21e5f05711b7fd50b17f2a ""
  "/usr/local/texlive/2015/texmf-dist/tex/generic/pgf/basiclayer/pgfcore.code.tex" 1288312291 1006 b103be0bfc8c1682ff1fa9760697a329 ""
  "/usr/local/texlive/2015/texmf-dist/tex/generic/pgf/basiclayer/pgfcorearrows.code.tex" 1393459310 42678 ea82fd948b4303ce6a2c8e25d5e8f8aa ""
  "/usr/local/texlive/2015/texmf-dist/tex/generic/pgf/basiclayer/pgfcoreexternal.code.tex" 1393459310 19287 b2041c22301def2360f03c004d16068d ""
  "/usr/local/texlive/2015/texmf-dist/tex/generic/pgf/basiclayer/pgfcoregraphicstate.code.tex" 1393459310 6653 6c617c4a5106d9f40e3d70946ba4e0ac ""
  "/usr/local/texlive/2015/texmf-dist/tex/generic/pgf/basiclayer/pgfcoreimage.code.tex" 1393459310 7041 a891ad72049e17c4e366c40ca37b0ccb ""
  "/usr/local/texlive/2015/texmf-dist/tex/generic/pgf/basiclayer/pgfcorelayers.code.tex" 1393459310 4625 40c07e9f6f2f7c674704b3f2055560ce ""
  "/usr/local/texlive/2015/texmf-dist/tex/generic/pgf/basiclayer/pgfcoreobjects.code.tex" 1203877327 2631 7eefa6cdbefd8d4e2bad7262cf1094cd ""
  "/usr/local/texlive/2015/texmf-dist/tex/generic/pgf/basiclayer/pgfcorepathconstruct.code.tex" 1393459310 43477 81143b33d9ebafdeead07ede13372427 ""
  "/usr/local/texlive/2015/texmf-dist/tex/generic/pgf/basiclayer/pgfcorepathprocessing.code.tex" 1393459310 17436 8d99d4113be311daf23deff86991ee7d ""
  "/usr/local/texlive/2015/texmf-dist/tex/generic/pgf/basiclayer/pgfcorepathusage.code.tex" 1393459310 20857 256da99fc70ea570aad1d50fdfd51464 ""
  "/usr/local/texlive/2015/texmf-dist/tex/generic/pgf/basiclayer/pgfcorepatterns.code.tex" 1393459310 9641 711f0edc22c180a5caf168b6e8970057 ""
  "/usr/local/texlive/2015/texmf-dist/tex/generic/pgf/basiclayer/pgfcorepoints.code.tex" 1393459310 34516 658a71478d21df554bce9d9cd436203a ""
  "/usr/local/texlive/2015/texmf-dist/tex/generic/pgf/basiclayer/pgfcorequick.code.tex" 1288312291 3052 e5672c657232fd63b0a9853b0746297c ""
  "/usr/local/texlive/2015/texmf-dist/tex/generic/pgf/basiclayer/pgfcorescopes.code.tex" 1393459310 16849 86fed972a2b3ad61208a6422e104bf26 ""
  "/usr/local/texlive/2015/texmf-dist/tex/generic/pgf/basiclayer/pgfcoreshade.code.tex" 1393459310 21541 4cd19f8ff7dd74d5aa7d803a6397af84 ""
  "/usr/local/texlive/2015/texmf-dist/tex/generic/pgf/basiclayer/pgfcoretransformations.code.tex" 1393459310 17423 a0f09c822b83b65445bc3ac25542dcc6 ""
  "/usr/local/texlive/2015/texmf-dist/tex/generic/pgf/basiclayer/pgfcoretransparency.code.tex" 1393459310 8943 2e2495b057f8f0035b5568394d489963 ""
  "/usr/local/texlive/2015/texmf-dist/tex/generic/pgf/frontendlayer/tikz/libraries/tikzlibrarycalc.code.tex" 1393459310 15934 b941bd3ae7b33179029513707d1f0ff6 ""
  "/usr/local/texlive/2015/texmf-dist/tex/generic/pgf/frontendlayer/tikz/libraries/tikzlibrarytopaths.code.tex" 1288312291 11599 d694704a88e2f9007c996d3a6a4d629c ""
  "/usr/local/texlive/2015/texmf-dist/tex/generic/pgf/frontendlayer/tikz/tikz.code.tex" 1393459310 175287 31eb66e838dd5e10589736193a31943c ""
  "/usr/local/texlive/2015/texmf-dist/tex/generic/pgf/libraries/pgflibraryarrows.code.tex" 1393459310 31927 7acd27f90dd95ce67ad32166cd0b95ec ""
  "/usr/local/texlive/2015/texmf-dist/tex/generic/pgf/libraries/pgflibraryplothandlers.code.tex" 1393459310 32969 dbcfd5a7de6a0f7255c333ef60287d59 ""
  "/usr/local/texlive/2015/texmf-dist/tex/generic/pgf/math/pgfmath.code.tex" 1393459310 454 9e9e7c99f4da4f41698be21eaef4938e ""
  "/usr/local/texlive/2015/texmf-dist/tex/generic/pgf/math/pgfmathcalc.code.tex" 1393459310 13416 940ea6971d7a65dc440d3479939c66ae ""
  "/usr/local/texlive/2015/texmf-dist/tex/generic/pgf/math/pgfmathfloat.code.tex" 1393459310 91879 5b3cc8d94c47a5b742393a410f298724 ""
  "/usr/local/texlive/2015/texmf-dist/tex/generic/pgf/math/pgfmathfunctions.base.code.tex" 1393459310 9375 5adc70f722abd29fc250d59e0694b548 ""
  "/usr/local/texlive/2015/texmf-dist/tex/generic/pgf/math/pgfmathfunctions.basic.code.tex" 1393459310 21406 80daebd1f9f6a174d8dc77c5bc931bf4 ""
  "/usr/local/texlive/2015/texmf-dist/tex/generic/pgf/math/pgfmathfunctions.code.tex" 1393459310 7820 5140d142921f39003e02ccedd072823a ""
  "/usr/local/texlive/2015/texmf-dist/tex/generic/pgf/math/pgfmathfunctions.comparison.code.tex" 1288312291 3534 c7f28fbac13616513e513efe93b8569b ""
  "/usr/local/texlive/2015/texmf-dist/tex/generic/pgf/math/pgfmathfunctions.integerarithmetics.code.tex" 1393459310 3167 7c9394e79aac27db96a92f9b2792b858 ""
  "/usr/local/texlive/2015/texmf-dist/tex/generic/pgf/math/pgfmathfunctions.misc.code.tex" 1393459310 9165 99b6966558714c44c0b5ee44ae261ffc ""
  "/usr/local/texlive/2015/texmf-dist/tex/generic/pgf/math/pgfmathfunctions.random.code.tex" 1288312291 6964 d4b5e82dabddda1c728063bb9c8a22ba ""
  "/usr/local/texlive/2015/texmf-dist/tex/generic/pgf/math/pgfmathfunctions.round.code.tex" 1288312291 2688 139c6abc86761a6190c2f4bef5d752be ""
  "/usr/local/texlive/2015/texmf-dist/tex/generic/pgf/math/pgfmathfunctions.trigonometric.code.tex" 1393459310 91075 1c1d7a7e8f0f737f72aa8becf0b37136 ""
  "/usr/local/texlive/2015/texmf-dist/tex/generic/pgf/math/pgfmathparser.code.tex" 1393459310 33289 b041d55e91f7382603e2dca6f9ad188d ""
  "/usr/local/texlive/2015/texmf-dist/tex/generic/pgf/math/pgfmathutil.code.tex" 1393459310 7099 f44d505bae6c7c2b933cdd63441db4b9 ""
  "/usr/local/texlive/2015/texmf-dist/tex/generic/pgf/modules/pgfmodulematrix.code.tex" 1393459310 20934 2328bd2e04520e1ab077ac4ee13b8935 ""
  "/usr/local/texlive/2015/texmf-dist/tex/generic/pgf/modules/pgfmoduleplot.code.tex" 1393459310 15785 e0b14c447df00370d2023fd5c9813190 ""
  "/usr/local/texlive/2015/texmf-dist/tex/generic/pgf/modules/pgfmoduleshapes.code.tex" 1393459310 42336 b13cf09dc317c76a2b165a8501d871cf ""
  "/usr/local/texlive/2015/texmf-dist/tex/generic/pgf/systemlayer/pgf.cfg" 1288312291 978 15af626ebd3d4d790aac19170dac04f2 ""
  "/usr/local/texlive/2015/texmf-dist/tex/generic/pgf/systemlayer/pgfsys-common-pdf.def" 1393459310 5437 d91f93ed61ecdc57e119849b2d784a0b ""
  "/usr/local/texlive/2015/texmf-dist/tex/generic/pgf/systemlayer/pgfsys-pdftex.def" 1393459310 11969 518d66d5b5e20471ba00709ef9c2b267 ""
  "/usr/local/texlive/2015/texmf-dist/tex/generic/pgf/systemlayer/pgfsys.code.tex" 1393459310 34488 3bab2022cdd1acab0cd383d8a0ad641b ""
  "/usr/local/texlive/2015/texmf-dist/tex/generic/pgf/systemlayer/pgfsysprotocol.code.tex" 1203877327 1983 b5994ebbcee17f1ba3d29bb1bd696fcf ""
  "/usr/local/texlive/2015/texmf-dist/tex/generic/pgf/systemlayer/pgfsyssoftpath.code.tex" 1393459310 7881 d459d6057e13d10ce7a227ae44b7295e ""
  "/usr/local/texlive/2015/texmf-dist/tex/generic/pgf/utilities/pgffor.code.tex" 1393459310 22211 d696ef78c12269178882d218b2cf191d ""
  "/usr/local/texlive/2015/texmf-dist/tex/generic/pgf/utilities/pgfkeys.code.tex" 1393459310 36194 e194ef4e0b396b531a3891feb4b1cc22 ""
  "/usr/local/texlive/2015/texmf-dist/tex/generic/pgf/utilities/pgfkeysfiltered.code.tex" 1393459310 33377 af391d6ad1bfcbe2278e191f48e43ba8 ""
  "/usr/local/texlive/2015/texmf-dist/tex/generic/pgf/utilities/pgfrcs.code.tex" 1393459310 2286 b5c392d27790ca52b8f8e510ef5044e0 ""
  "/usr/local/texlive/2015/texmf-dist/tex/generic/pgf/utilities/pgfutil-common-lists.tex" 1393459310 6833 114eda2cf1d348e0e7e477a1a4dc1941 ""
  "/usr/local/texlive/2015/texmf-dist/tex/generic/pgf/utilities/pgfutil-common.tex" 1393459310 16384 3fa06861c9a3391a75df39466f49655f ""
  "/usr/local/texlive/2015/texmf-dist/tex/generic/pgf/utilities/pgfutil-latex.def" 1393459310 4500 b148f531c7670d59c695787be06a508b ""
  "/usr/local/texlive/2015/texmf-dist/tex/generic/xkeyval/xkeyval.tex" 1417732693 19231 26434a5656c684f5ffb1f26f98006baa ""
  "/usr/local/texlive/2015/texmf-dist/tex/generic/xkeyval/xkvutils.tex" 1403829539 7677 6f5ce7c1124cad7ec57d05b2562bd8fe ""
  "/usr/local/texlive/2015/texmf-dist/tex/latex/SIunits/SIunits.cfg" 1137109856 1339 e1c35ec7ca1a5a17ac67ecbdabb6990b ""
  "/usr/local/texlive/2015/texmf-dist/tex/latex/SIunits/SIunits.sty" 1196611627 24315 d4b7c746aadbeeadad3d915d486cc1b1 ""
  "/usr/local/texlive/2015/texmf-dist/tex/latex/adjustbox/adjcalc.sty" 1337209790 5413 28ccf87dc7aa0cb642dca714a24a0e0e ""
  "/usr/local/texlive/2015/texmf-dist/tex/latex/adjustbox/adjustbox.sty" 1337644619 34406 e1a62300781a9f8a5ca0a38d16b34d67 ""
  "/usr/local/texlive/2015/texmf-dist/tex/latex/adjustbox/tc-pdftex.def" 1337209790 1442 51243195f4fdf731a12f15ee33772346 ""
  "/usr/local/texlive/2015/texmf-dist/tex/latex/adjustbox/trimclip.sty" 1337209790 7112 f0440fa8b74253e1bc8b4f4227a9df9d ""
  "/usr/local/texlive/2015/texmf-dist/tex/latex/amscls/amsthm.sty" 1428861406 12225 3cca0d18522255979a1047206228b9d0 ""
  "/usr/local/texlive/2015/texmf-dist/tex/latex/amsfonts/amsfonts.sty" 1359763108 5949 3f3fd50a8cc94c3d4cbf4fc66cd3df1c ""
  "/usr/local/texlive/2015/texmf-dist/tex/latex/amsfonts/amssymb.sty" 1359763108 13829 94730e64147574077f8ecfea9bb69af4 ""
  "/usr/local/texlive/2015/texmf-dist/tex/latex/amsfonts/umsa.fd" 1359763108 961 6518c6525a34feb5e8250ffa91731cff ""
  "/usr/local/texlive/2015/texmf-dist/tex/latex/amsfonts/umsb.fd" 1359763108 961 d02606146ba5601b5645f987c92e6193 ""
  "/usr/local/texlive/2015/texmf-dist/tex/latex/amsmath/amsbsy.sty" 1362954379 2412 2d98314dc5be38f455f8890deeb2d091 ""
  "/usr/local/texlive/2015/texmf-dist/tex/latex/amsmath/amsgen.sty" 1362954379 4357 ad30ad08920902fc9b38caf35a3b0496 ""
  "/usr/local/texlive/2015/texmf-dist/tex/latex/amsmath/amsmath.sty" 1362954379 79178 b2e326c351e876df0e5e23df2e02441b ""
  "/usr/local/texlive/2015/texmf-dist/tex/latex/amsmath/amsopn.sty" 1362954379 4082 502152465aedb8f6a3c4b0b7c0fa8ae5 ""
  "/usr/local/texlive/2015/texmf-dist/tex/latex/amsmath/amstext.sty" 1362954379 2637 846ebe982d3549c7ede7ce135456f54a ""
  "/usr/local/texlive/2015/texmf-dist/tex/latex/base/article.cls" 1428932888 20708 96f8bca6e380179cada1d49716376167 ""
  "/usr/local/texlive/2015/texmf-dist/tex/latex/base/inputenc.sty" 1428932888 5619 3f48adceb9004b3fefe24c2d2df7d98e ""
  "/usr/local/texlive/2015/texmf-dist/tex/latex/base/makeidx.sty" 1428932888 1940 d6de0410d9ab8e197c80422e5314e9da ""
  "/usr/local/texlive/2015/texmf-dist/tex/latex/base/omscmr.fd" 1428932888 2256 09a793cb810c26c97ed035dcd724a0d0 ""
  "/usr/local/texlive/2015/texmf-dist/tex/latex/base/omsenc.dfu" 1428932888 2005 572b09e94d01e22ed7d4000c92b6e220 ""
  "/usr/local/texlive/2015/texmf-dist/tex/latex/base/ot1enc.dfu" 1428932888 2757 273e079c3d3a9830c5b4fa2a4ce69c51 ""
  "/usr/local/texlive/2015/texmf-dist/tex/latex/base/size12.clo" 1428932888 9190 a2c71ff21fa1cfc03c403f5e246966b5 ""
  "/usr/local/texlive/2015/texmf-dist/tex/latex/base/t1enc.dfu" 1428932888 7617 8f111f916836ef9e09db7ecbcd4e01d6 ""
  "/usr/local/texlive/2015/texmf-dist/tex/latex/base/ts1cmr.fd" 1428932888 2217 88eb40cf4b1efa71ba8daf8030a0113f ""
  "/usr/local/texlive/2015/texmf-dist/tex/latex/base/ts1enc.dfu" 1428932888 4920 919d74324d79f3b4140842b12ac97e85 ""
  "/usr/local/texlive/2015/texmf-dist/tex/latex/base/utf8.def" 1428932888 6484 2098550b79b15e713b69d9c8845f4437 ""
  "/usr/local/texlive/2015/texmf-dist/tex/latex/breqn/breqn.sty" 1407448355 62906 15772339221839542ccccdf68f7c3436 ""
  "/usr/local/texlive/2015/texmf-dist/tex/latex/breqn/cmbase.sym" 1408833995 16793 3f6ac1963573b47f1571c56ff7fc9696 ""
  "/usr/local/texlive/2015/texmf-dist/tex/latex/breqn/flexisym.sty" 1407448355 17590 7d3680bb1a76473d361b7346d600da9a ""
  "/usr/local/texlive/2015/texmf-dist/tex/latex/breqn/mathstyle.sty" 1407448355 5474 b8857cac35d9f24943db42b681aa7214 ""
  "/usr/local/texlive/2015/texmf-dist/tex/latex/circuitikz/circuitikz.sty" 1431726452 7197 2748c51512bb07ed8f6e05d0af27e9be ""
  "/usr/local/texlive/2015/texmf-dist/tex/latex/collectbox/collectbox.sty" 1337644648 9116 495d44b5a3e7be0c46c5d1f053f457f0 ""
  "/usr/local/texlive/2015/texmf-dist/tex/latex/fancyhdr/fancyhdr.sty" 1160175134 20521 e5d13d98d57bd53d4fed3aa61bd29c86 ""
  "/usr/local/texlive/2015/texmf-dist/tex/latex/geometry/geometry.sty" 1284422013 40502 e003406220954b0716679d7928aedd8a ""
  "/usr/local/texlive/2015/texmf-dist/tex/latex/graphics/graphics.sty" 1428932888 14285 20d80486c4ae98139889d8789596c967 ""
  "/usr/local/texlive/2015/texmf-dist/tex/latex/graphics/graphicx.sty" 1428932888 8125 557ab9f1bfa80d369fb45a914aa8a3b4 ""
  "/usr/local/texlive/2015/texmf-dist/tex/latex/graphics/keyval.sty" 1428932888 2594 d18d5e19aa8239cf867fa670c556d2e9 ""
  "/usr/local/texlive/2015/texmf-dist/tex/latex/graphics/trig.sty" 1428932888 3439 44bd4a1da7f27787173f2e99116b0a7f ""
  "/usr/local/texlive/2015/texmf-dist/tex/latex/ifoddpage/ifoddpage.sty" 1316197439 1363 ad3d0d4483ff3ebcb79acd04d371b213 ""
  "/usr/local/texlive/2015/texmf-dist/tex/latex/l3kernel/expl3-code.tex" 1425333639 620503 0a42d66dc46ae1556f8411b690472b29 ""
  "/usr/local/texlive/2015/texmf-dist/tex/latex/l3kernel/expl3.sty" 1425333639 9939 d111746ad1c76689755456576a3e5b3a ""
  "/usr/local/texlive/2015/texmf-dist/tex/latex/l3kernel/l3pdfmode.def" 1417044313 5044 893dfca2aa5b7b2748a9a0632e0b33d7 ""
  "/usr/local/texlive/2015/texmf-dist/tex/latex/l3kernel/l3unicode-data.def" 1425333639 36377 33858a9b2d242d8c95adb07885e1ee99 ""
  "/usr/local/texlive/2015/texmf-dist/tex/latex/latexconfig/color.cfg" 1254097189 802 7b8c8d72c24d795ed7720e4dfd29bff3 ""
  "/usr/local/texlive/2015/texmf-dist/tex/latex/latexconfig/epstopdf-sys.cfg" 1279039959 678 4792914a8f45be57bb98413425e4c7af ""
  "/usr/local/texlive/2015/texmf-dist/tex/latex/latexconfig/graphics.cfg" 1278958963 3563 d35e897cae3b8c6848f6677b73370b54 ""
  "/usr/local/texlive/2015/texmf-dist/tex/latex/listings/listings.cfg" 1410123741 1828 ddc16c1fe1b992198f2f6db76c7605a1 ""
  "/usr/local/texlive/2015/texmf-dist/tex/latex/listings/listings.sty" 1410123741 80361 986ecfb58a31c7520247f2b2ead09587 ""
  "/usr/local/texlive/2015/texmf-dist/tex/latex/listings/lstlang1.sty" 1410123741 93444 0138f333d6d5318ba4266bb8d4ee3643 ""
  "/usr/local/texlive/2015/texmf-dist/tex/latex/listings/lstmisc.sty" 1410123741 77029 f4782a67dce3ceeb4067191b5488d81d ""
  "/usr/local/texlive/2015/texmf-dist/tex/latex/lstaddons/lstautogobble.sty" 1336175352 3491 4dc2074b43d50708171c5db5a53b2119 ""
  "/usr/local/texlive/2015/texmf-dist/tex/latex/ms/everyshi.sty" 1177890616 3878 6aa7c08ff2621006e0603349e40a30a8 ""
  "/usr/local/texlive/2015/texmf-dist/tex/latex/oberdiek/epstopdf-base.sty" 1303254447 12029 04d7fdf76e0464c23b5aa3a727952d7c ""
  "/usr/local/texlive/2015/texmf-dist/tex/latex/oberdiek/grfext.sty" 1335995445 7075 bd0c34fbf1ae8fd1debd2a554e41b2d5 ""
  "/usr/local/texlive/2015/texmf-dist/tex/latex/oberdiek/kvoptions.sty" 1335995445 22417 c74ff4af6a1aa2b65d1924020edbbe11 ""
  "/usr/local/texlive/2015/texmf-dist/tex/latex/paralist/paralist.sty" 1372376129 14747 154e41a6d5d746a2b1f2dcbe973ac29b ""
  "/usr/local/texlive/2015/texmf-dist/tex/latex/pdftex-def/pdftex.def" 1306616590 55368 3c8a0d99822330f2dfabc0dfb09ce897 ""
  "/usr/local/texlive/2015/texmf-dist/tex/latex/pgf/basiclayer/pgf.sty" 1393459310 1190 4e20f1d26da9f86ba6a50d7ad16c48d2 ""
  "/usr/local/texlive/2015/texmf-dist/tex/latex/pgf/basiclayer/pgfcore.sty" 1288312291 410 5bf12ea7330e5f12c445332a4fe9a263 ""
  "/usr/local/texlive/2015/texmf-dist/tex/latex/pgf/compatibility/pgfcomp-version-0-65.sty" 1203877327 21115 facf03b7dbe5ea2f5f1dce1ac84b5d05 ""
  "/usr/local/texlive/2015/texmf-dist/tex/latex/pgf/compatibility/pgfcomp-version-1-18.sty" 1203727794 1091 d9163d29def82ee90370c8a63667742c ""
  "/usr/local/texlive/2015/texmf-dist/tex/latex/pgf/frontendlayer/tikz.sty" 1203877327 339 592cf35cba3d400082b8a9a5d0199d70 ""
  "/usr/local/texlive/2015/texmf-dist/tex/latex/pgf/math/pgfmath.sty" 1393459310 306 0796eafca5e159e6ec2167a6d22d81b1 ""
  "/usr/local/texlive/2015/texmf-dist/tex/latex/pgf/systemlayer/pgfsys.sty" 1393459310 443 0b2e781830192df35c0fd357cf13e26e ""
  "/usr/local/texlive/2015/texmf-dist/tex/latex/pgf/utilities/pgffor.sty" 1393459310 348 8927fde343487e003b01a4c2ca34073b ""
  "/usr/local/texlive/2015/texmf-dist/tex/latex/pgf/utilities/pgfkeys.sty" 1203727794 274 4cad6e665cc93ac2ac979039a94fa1e1 ""
  "/usr/local/texlive/2015/texmf-dist/tex/latex/pgf/utilities/pgfrcs.sty" 1203877327 325 2bcd023400636339210573e2b3ee298b ""
  "/usr/local/texlive/2015/texmf-dist/tex/latex/placeins/placeins.sty" 1137110565 4087 636308456f60d2b31cbf97867db5708d ""
  "/usr/local/texlive/2015/texmf-dist/tex/latex/tools/array.sty" 1428932888 13285 001a28447062ce32b9b4a62965626fc4 ""
  "/usr/local/texlive/2015/texmf-dist/tex/latex/tools/calc.sty" 1428932888 10214 78c09985255ed93018b1db2c4e2f6deb ""
  "/usr/local/texlive/2015/texmf-dist/tex/latex/tools/enumerate.sty" 1428932888 3467 e23880ed1af32024be116b861a72d6e1 ""
  "/usr/local/texlive/2015/texmf-dist/tex/latex/varwidth/varwidth.sty" 1238697683 10894 d359a13923460b2a73d4312d613554c8 ""
  "/usr/local/texlive/2015/texmf-dist/tex/latex/wrapfig/wrapfig.sty" 1137111090 26220 3701aebf80ccdef248c0c20dd062fea9 ""
  "/usr/local/texlive/2015/texmf-dist/tex/latex/xcolor/xcolor.sty" 1169481954 55224 a43bab84e0ac5e6efcaf9a98bde73a94 ""
  "/usr/local/texlive/2015/texmf-dist/tex/latex/xkeyval/xkeyval.sty" 1417732693 4962 9c1069474ff71dbc47d5006555e352d3 ""
  "Relatorio2.aux" 1442581178 8636 769dc327f9ba08319ec0a2001dd5088c ""
  "Relatorio2.lof" 1442581178 5908 979a7786e1c7ea2a8533dcdcd9de00e1 ""
  "Relatorio2.lot" 1442581178 730 dd019dbcb375d43783a150bfa457068a ""
  "Relatorio2.tex" 1442581173 76109 a2e2bde92d76a43b91deb5a6add1f271 ""
  "Relatorio2.toc" 1442581178 153 7024e4848ce6090419187f8cd50df8ee ""
  "images/logo_eesc.png" 1429548121 252609 70cf70280f1b2e91e000ac0d2cf834a1 ""
  "images/q11/Is_vdd_reprojetado.jpg" 1441735368 77325 90db8af778e46ad0720091525bef3186 ""
  "images/q11/esquematico.png" 1442345101 28165 8e3a34d65d7455e7624e06ea42a8c5c5 ""
  "images/q12/ic_sem_funcionar.jpg" 1441735418 65249 bfb9f489ba7404aa070c3d04a8b5ac09 ""
  "images/q15/layout.png" 1442026912 771955 fc7b539455f60a56685dc80630cd2cee ""
  "images/q16/q16_a.jpg" 1441826062 104433 ff95826f6f7e723ee6b21a264512a8f3 ""
  "images/q16/q16_b.jpg" 1441826296 119984 9d95fdd8beec97ad15d9985cb8dfd39f ""
  "images/q16/q16_c.jpg" 1441826390 110505 a012d1a9d895aa4c8c25a87aca099b0e ""
  "images/q17/is_x_temp.jpg" 1441826540 109290 b39e1db947f1a74fa13e49b8addb3559 ""
  "images/q18/is_x_temp_valores_extremos.jpg" 1441826574 124948 50ddaafca1d9653c6d3047f30b567031 ""
  "images/q21/freq_max_ruido.jpg" 1441826718 170173 fdfb814f16db39cef804252d04af2371 ""
  "images/q21/is_db_x_freq_log.jpg" 1441826656 163050 bc2990b277609c56802cbd2a76a7a5fa ""
  "images/q24/vbe_x_temp.jpg" 1441824148 117451 1aef9ab792ebfd6907560ff8818f68d3 ""
  "images/q25/resistor_simulated_temp_coefficient.jpg" 1441836616 112708 b3ab79b79f517242078ab084cfb6b672 ""
  "images/q25/schematic.png" 1442092296 91941 79ec4461388c73daedd6bd4ed91d4e1f ""
  "images/q25/vref_x_temp.jpg" 1442237948 88130 51833f2172ccd72465af5b07113f7e06 ""
  "images/q26/comprimento_simulado.jpg" 1442317192 98897 fdea9bd6d371519e1b6b607f7c82af4d ""
  "images/q26/layout_res.png" 1442351525 62491 9db06ac18da0662381f7417e2b186eec ""
  "images/q27/layout_pads.png" 1442164834 516727 0af1ae93261ae316b22663f40ad4c5eb ""
  "images/q27/vref_x_temp_vdd_variando.jpg" 1442319412 180755 5ac2fb8c18a3d463bd2696e3a9ac1c36 ""
  "images/q8/is_x_resistencia.jpg" 1442237166 105695 f23a77b65dd038f719c870c93f2ddcaa ""
  "images/q8/is_x_vdd.jpg" 1442237214 85022 e7eca09b211adcddf2d09fbe1e390250 ""
  "images/q9/2percent_error_values_for_vdd.jpg" 1442237330 105091 345a2dd19b8a18259b8b2f683a64b66f ""
  (generated)
  "Relatorio2.lof"
  "Relatorio2.log"
  "Relatorio2.lot"
  "Relatorio2.aux"
  "Relatorio2.toc"
  "Relatorio2.pdf"
