\relax 
\catcode `"\active 
\providecommand \oddpage@label [2]{}
\select@language{brazilian}
\@writefile{toc}{\select@language{brazilian}}
\@writefile{lof}{\select@language{brazilian}}
\@writefile{lot}{\select@language{brazilian}}
\@writefile{toc}{\contentsline {section}{\numberline {1}Introdu\IeC {\c c}\IeC {\~a}o}{4}}
\@writefile{toc}{\contentsline {section}{\numberline {2}Projeto}{5}}
\@writefile{lof}{\contentsline {figure}{\numberline {1}{\ignorespaces Esquem\IeC {\'a}tico do circuito com as c\IeC {\'e}lulas \textbf  {DF1}, \textbf  {NAND23}, \textbf  {NOR23} e \textbf  {NAND40}}}{5}}
\newlabel{fig:schema1}{{1}{5}}
\@writefile{lof}{\contentsline {figure}{\numberline {2}{\ignorespaces \emph  {Layout} desenvolvido para o esquem\IeC {\'a}tico da figura \ref  {fig:schema1} - Divisor de frequ\IeC {\^e}ncia $32$/$33$}}{6}}
\newlabel{fig:layout32_33}{{2}{6}}
\@writefile{lof}{\contentsline {figure}{\numberline {3}{\ignorespaces Esquem\IeC {\'a}tico do circuito com as c\IeC {\'e}lulas \textbf  {NAND23} e o \emph  {prescaler} desenvolvido anteriormente}}{7}}
\newlabel{fig:schema2}{{3}{7}}
\@writefile{lof}{\contentsline {figure}{\numberline {4}{\ignorespaces \emph  {Layout} desenvolvido para o esquem\IeC {\'a}tico da figura \ref  {fig:schema2}}}{7}}
\newlabel{fig:layout2}{{4}{7}}
\@writefile{lof}{\contentsline {figure}{\numberline {5}{\ignorespaces Esquem\IeC {\'a}tico do circuito modificado com as c\IeC {\'e}lulas \textbf  {NAND23}, \emph  {prescaler} e um transistor na sa\IeC {\'\i }da}}{8}}
\newlabel{fig:schema3}{{5}{8}}
\@writefile{lof}{\contentsline {figure}{\numberline {6}{\ignorespaces \emph  {Layout} desenvolvido para o esquem\IeC {\'a}tico da figura \ref  {fig:schema3} que adiciona o transistor na sa\IeC {\'\i }da do circuito projetado}}{8}}
\newlabel{fig:layout3}{{6}{8}}
\@writefile{lof}{\contentsline {figure}{\numberline {7}{\ignorespaces Simula\IeC {\c c}\IeC {\~a}o para a divis\IeC {\~a}o de frequ\IeC {\^e}ncia com rela\IeC {\c c}\IeC {\~a}o ao per\IeC {\'\i }odo do sinal de entrada ($SM = 0$ e modelo t\IeC {\'\i }pico) - adimensional x tempo ($ps$)}}{10}}
\newlabel{fig:tm_sm0}{{7}{10}}
\@writefile{lof}{\contentsline {figure}{\numberline {8}{\ignorespaces Simula\IeC {\c c}\IeC {\~a}o para a divis\IeC {\~a}o de frequ\IeC {\^e}ncia com rela\IeC {\c c}\IeC {\~a}o ao per\IeC {\'\i }odo do sinal de entrada ($SM = 1$ e modelo t\IeC {\'\i }pico) - adimensional x tempo ($ns$)}}{10}}
\newlabel{fig:tm_sm1}{{8}{10}}
\@writefile{lof}{\contentsline {figure}{\numberline {9}{\ignorespaces Simula\IeC {\c c}\IeC {\~a}o para a divis\IeC {\~a}o de frequ\IeC {\^e}ncia com rela\IeC {\c c}\IeC {\~a}o ao per\IeC {\'\i }odo do sinal de entrada ($SM = 0$ e modelo \emph  {worst speed}) - adimensional x tempo ($ns$)}}{11}}
\newlabel{fig:ws_sm0}{{9}{11}}
\@writefile{lof}{\contentsline {figure}{\numberline {10}{\ignorespaces Simula\IeC {\c c}\IeC {\~a}o para a divis\IeC {\~a}o de frequ\IeC {\^e}ncia com rela\IeC {\c c}\IeC {\~a}o ao per\IeC {\'\i }odo do sinal de entrada ($SM = 1$ e modelo \emph  {worst speed}) - adimensional x tempo ($ns$)}}{11}}
\newlabel{fig:ws_sm1}{{10}{11}}
\@writefile{lof}{\contentsline {figure}{\numberline {11}{\ignorespaces Simula\IeC {\c c}\IeC {\~a}o para a divis\IeC {\~a}o de frequ\IeC {\^e}ncia com rela\IeC {\c c}\IeC {\~a}o ao per\IeC {\'\i }odo do sinal de entrada ($SM = 0$ e modelo t\IeC {\'\i }pico) - adimensional x tempo ($ns$)}}{13}}
\newlabel{fig:tm_sm0_1}{{11}{13}}
\@writefile{lof}{\contentsline {figure}{\numberline {12}{\ignorespaces Simula\IeC {\c c}\IeC {\~a}o para a divis\IeC {\~a}o de frequ\IeC {\^e}ncia com rela\IeC {\c c}\IeC {\~a}o ao per\IeC {\'\i }odo do sinal de entrada ($SM = 1$ e modelo t\IeC {\'\i }pico) - adimensional x tempo ($ns$)}}{13}}
\newlabel{fig:tm_sm1_1}{{12}{13}}
\@writefile{lof}{\contentsline {figure}{\numberline {13}{\ignorespaces Simula\IeC {\c c}\IeC {\~a}o para a divis\IeC {\~a}o de frequ\IeC {\^e}ncia com rela\IeC {\c c}\IeC {\~a}o ao per\IeC {\'\i }odo do sinal de entrada ($SM = 0$ e modelo \emph  {worst speed}) - adimensional x tempo ($ns$)}}{14}}
\newlabel{fig:ws_sm0_1}{{13}{14}}
\@writefile{lof}{\contentsline {figure}{\numberline {14}{\ignorespaces Simula\IeC {\c c}\IeC {\~a}o para a divis\IeC {\~a}o de frequ\IeC {\^e}ncia com rela\IeC {\c c}\IeC {\~a}o ao per\IeC {\'\i }odo do sinal de entrada ($SM = 1$ e modelo \emph  {worst speed}) - adimensional x tempo ($ns$)}}{14}}
\newlabel{fig:ws_sm1_1}{{14}{14}}
\@writefile{lof}{\contentsline {figure}{\numberline {15}{\ignorespaces Simula\IeC {\c c}\IeC {\~a}o para a divis\IeC {\~a}o de frequ\IeC {\^e}ncia com rela\IeC {\c c}\IeC {\~a}o ao per\IeC {\'\i }odo do sinal de entrada ($SM = 0$ e modelo t\IeC {\'\i }pico) - adimensional x tempo ($ps$)}}{16}}
\newlabel{fig:tm_sm0_2}{{15}{16}}
\@writefile{lof}{\contentsline {figure}{\numberline {16}{\ignorespaces Simula\IeC {\c c}\IeC {\~a}o para a divis\IeC {\~a}o de frequ\IeC {\^e}ncia com rela\IeC {\c c}\IeC {\~a}o ao per\IeC {\'\i }odo do sinal de entrada ($SM = 1$ e modelo t\IeC {\'\i }pico) - adimensional x tempo ($ns$)}}{16}}
\newlabel{fig:tm_sm1_2}{{16}{16}}
\@writefile{lof}{\contentsline {figure}{\numberline {17}{\ignorespaces Simula\IeC {\c c}\IeC {\~a}o para a divis\IeC {\~a}o de frequ\IeC {\^e}ncia com rela\IeC {\c c}\IeC {\~a}o ao per\IeC {\'\i }odo do sinal de entrada ($SM = 0$ e modelo \emph  {worst speed}) - adimensional x tempo ($ns$)}}{17}}
\newlabel{fig:ws_sm0_2}{{17}{17}}
\@writefile{lof}{\contentsline {figure}{\numberline {18}{\ignorespaces Simula\IeC {\c c}\IeC {\~a}o para a divis\IeC {\~a}o de frequ\IeC {\^e}ncia com rela\IeC {\c c}\IeC {\~a}o ao per\IeC {\'\i }odo do sinal de entrada ($SM = 1$ e modelo \emph  {worst speed}) - adimensional x tempo ($ns$)}}{17}}
\newlabel{fig:ws_sm1_2}{{18}{17}}
\@writefile{lot}{\contentsline {table}{\numberline {1}{\ignorespaces Per\IeC {\'\i }odos de \emph  {clock} obtidos para as simula\IeC {\c c}\IeC {\~o}es realizadas do circuito divisor de \emph  {clock} $32$ e $33$ - Note que para a quest\IeC {\~a}o $14$ os valores s\IeC {\~a}o repetidos pois foi obtido somente um valor para os calculos te\IeC {\'o}ricos; desconsidera-se o tempo de \emph  {setup} dos elementos}}{21}}
\newlabel{tab:clocks_divisor}{{1}{21}}
